col,desc
NAME,Geographic Area Name
DP03_0001E,Estimate!!EMPLOYMENT STATUS!!Population 16 years and over
DP03_0001PE,Percent!!EMPLOYMENT STATUS!!Population 16 years and over
DP03_0002E,Estimate!!EMPLOYMENT STATUS!!Population 16 years and over!!In labor force
DP03_0002PE,Percent!!EMPLOYMENT STATUS!!Population 16 years and over!!In labor force
DP03_0003E,Estimate!!EMPLOYMENT STATUS!!Population 16 years and over!!In labor force!!Civilian labor force
DP03_0003PE,Percent!!EMPLOYMENT STATUS!!Population 16 years and over!!In labor force!!Civilian labor force
DP03_0004E,Estimate!!EMPLOYMENT STATUS!!Population 16 years and over!!In labor force!!Civilian labor force!!Employed
DP03_0004PE,Percent!!EMPLOYMENT STATUS!!Population 16 years and over!!In labor force!!Civilian labor force!!Employed
DP03_0005E,Estimate!!EMPLOYMENT STATUS!!Population 16 years and over!!In labor force!!Civilian labor force!!Unemployed
DP03_0005PE,Percent!!EMPLOYMENT STATUS!!Population 16 years and over!!In labor force!!Civilian labor force!!Unemployed
DP03_0006E,Estimate!!EMPLOYMENT STATUS!!Population 16 years and over!!In labor force!!Armed Forces
DP03_0006PE,Percent!!EMPLOYMENT STATUS!!Population 16 years and over!!In labor force!!Armed Forces
DP03_0007E,Estimate!!EMPLOYMENT STATUS!!Population 16 years and over!!Not in labor force
DP03_0007PE,Percent!!EMPLOYMENT STATUS!!Population 16 years and over!!Not in labor force
DP03_0008E,Estimate!!EMPLOYMENT STATUS!!Civilian labor force
DP03_0008PE,Percent!!EMPLOYMENT STATUS!!Civilian labor force
DP03_0009PE,Percent!!EMPLOYMENT STATUS!!Civilian labor force!!Unemployment Rate
DP03_0010E,Estimate!!EMPLOYMENT STATUS!!Females 16 years and over
DP03_0010PE,Percent!!EMPLOYMENT STATUS!!Females 16 years and over
DP03_0011PE,Percent!!EMPLOYMENT STATUS!!Females 16 years and over!!In labor force
DP03_0012PE,Percent!!EMPLOYMENT STATUS!!Females 16 years and over!!In labor force!!Civilian labor force
DP03_0013PE,Percent!!EMPLOYMENT STATUS!!Females 16 years and over!!In labor force!!Civilian labor force!!Employed
DP03_0014E,Estimate!!EMPLOYMENT STATUS!!Own children of the householder under 6 years
DP03_0014PE,Percent!!EMPLOYMENT STATUS!!Own children of the householder under 6 years
DP03_0015E,Estimate!!EMPLOYMENT STATUS!!Own children of the householder under 6 years!!All parents in family in labor force
DP03_0015PE,Percent!!EMPLOYMENT STATUS!!Own children of the householder under 6 years!!All parents in family in labor force
DP03_0016E,Estimate!!EMPLOYMENT STATUS!!Own children of the householder 6 to 17 years
DP03_0016PE,Percent!!EMPLOYMENT STATUS!!Own children of the householder 6 to 17 years
DP03_0017E,Estimate!!EMPLOYMENT STATUS!!Own children of the householder 6 to 17 years!!All parents in family in labor force
DP03_0017PE,Percent!!EMPLOYMENT STATUS!!Own children of the householder 6 to 17 years!!All parents in family in labor force
DP03_0018E,Estimate!!COMMUTING TO WORK!!Workers 16 years and over
DP03_0018PE,Percent!!COMMUTING TO WORK!!Workers 16 years and over
DP03_0019E,"Estimate!!COMMUTING TO WORK!!Workers 16 years and over!!Car, truck, or van -- drove alone"
DP03_0019PE,"Percent!!COMMUTING TO WORK!!Workers 16 years and over!!Car, truck, or van -- drove alone"
DP03_0020E,"Estimate!!COMMUTING TO WORK!!Workers 16 years and over!!Car, truck, or van -- carpooled"
DP03_0021E,Estimate!!COMMUTING TO WORK!!Workers 16 years and over!!Public transportation (excluding taxicab)
DP03_0021PE,Percent!!COMMUTING TO WORK!!Workers 16 years and over!!Public transportation (excluding taxicab)
DP03_0022E,Estimate!!COMMUTING TO WORK!!Workers 16 years and over!!Walked
DP03_0022PE,Percent!!COMMUTING TO WORK!!Workers 16 years and over!!Walked
DP03_0023E,Estimate!!COMMUTING TO WORK!!Workers 16 years and over!!Other means
DP03_0023PE,Percent!!COMMUTING TO WORK!!Workers 16 years and over!!Other means
DP03_0024E,Estimate!!COMMUTING TO WORK!!Workers 16 years and over!!Worked from home
DP03_0024PE,Percent!!COMMUTING TO WORK!!Workers 16 years and over!!Worked from home
DP03_0025E,Estimate!!COMMUTING TO WORK!!Workers 16 years and over!!Mean travel time to work (minutes)
DP03_0026E,Estimate!!OCCUPATION!!Civilian employed population 16 years and over
DP03_0026PE,Percent!!OCCUPATION!!Civilian employed population 16 years and over
DP03_0027PE,"Percent!!OCCUPATION!!Civilian employed population 16 years and over!!Management, business, science, and arts occupations"
DP03_0028E,Estimate!!OCCUPATION!!Civilian employed population 16 years and over!!Service occupations
DP03_0028PE,Percent!!OCCUPATION!!Civilian employed population 16 years and over!!Service occupations
DP03_0029E,Estimate!!OCCUPATION!!Civilian employed population 16 years and over!!Sales and office occupations
DP03_0029PE,Percent!!OCCUPATION!!Civilian employed population 16 years and over!!Sales and office occupations
DP03_0030PE,"Percent!!OCCUPATION!!Civilian employed population 16 years and over!!Natural resources, construction, and maintenance occupations"
DP03_0031E,"Estimate!!OCCUPATION!!Civilian employed population 16 years and over!!Production, transportation, and material moving occupations"
DP03_0031PE,"Percent!!OCCUPATION!!Civilian employed population 16 years and over!!Production, transportation, and material moving occupations"
DP03_0032E,Estimate!!INDUSTRY!!Civilian employed population 16 years and over
DP03_0032PE,Percent!!INDUSTRY!!Civilian employed population 16 years and over
DP03_0033E,"Estimate!!INDUSTRY!!Civilian employed population 16 years and over!!Agriculture, forestry, fishing and hunting, and mining"
DP03_0033PE,"Percent!!INDUSTRY!!Civilian employed population 16 years and over!!Agriculture, forestry, fishing and hunting, and mining"
DP03_0034PE,Percent!!INDUSTRY!!Civilian employed population 16 years and over!!Construction
DP03_0035E,Estimate!!INDUSTRY!!Civilian employed population 16 years and over!!Manufacturing
DP03_0035PE,Percent!!INDUSTRY!!Civilian employed population 16 years and over!!Manufacturing
DP03_0036E,Estimate!!INDUSTRY!!Civilian employed population 16 years and over!!Wholesale trade
DP03_0036PE,Percent!!INDUSTRY!!Civilian employed population 16 years and over!!Wholesale trade
DP03_0037E,Estimate!!INDUSTRY!!Civilian employed population 16 years and over!!Retail trade
DP03_0038PE,"Percent!!INDUSTRY!!Civilian employed population 16 years and over!!Transportation and warehousing, and utilities"
DP03_0039E,Estimate!!INDUSTRY!!Civilian employed population 16 years and over!!Information
DP03_0039PE,Percent!!INDUSTRY!!Civilian employed population 16 years and over!!Information
DP03_0041E,"Estimate!!INDUSTRY!!Civilian employed population 16 years and over!!Professional, scientific, and management, and administrative and waste management services"
DP03_0042E,"Estimate!!INDUSTRY!!Civilian employed population 16 years and over!!Educational services, and health care and social assistance"
DP03_0042PE,"Percent!!INDUSTRY!!Civilian employed population 16 years and over!!Educational services, and health care and social assistance"
DP03_0043E,"Estimate!!INDUSTRY!!Civilian employed population 16 years and over!!Arts, entertainment, and recreation, and accommodation and food services"
DP03_0044PE,"Percent!!INDUSTRY!!Civilian employed population 16 years and over!!Other services, except public administration"
DP03_0045E,Estimate!!INDUSTRY!!Civilian employed population 16 years and over!!Public administration
DP03_0045PE,Percent!!INDUSTRY!!Civilian employed population 16 years and over!!Public administration
DP03_0046E,Estimate!!CLASS OF WORKER!!Civilian employed population 16 years and over
DP03_0046PE,Percent!!CLASS OF WORKER!!Civilian employed population 16 years and over
DP03_0047E,Estimate!!CLASS OF WORKER!!Civilian employed population 16 years and over!!Private wage and salary workers
DP03_0047PE,Percent!!CLASS OF WORKER!!Civilian employed population 16 years and over!!Private wage and salary workers
DP03_0048E,Estimate!!CLASS OF WORKER!!Civilian employed population 16 years and over!!Government workers
DP03_0048PE,Percent!!CLASS OF WORKER!!Civilian employed population 16 years and over!!Government workers
DP03_0049PE,Percent!!CLASS OF WORKER!!Civilian employed population 16 years and over!!Self-employed in own not incorporated business workers
DP03_0050E,Estimate!!CLASS OF WORKER!!Civilian employed population 16 years and over!!Unpaid family workers
DP03_0050PE,Percent!!CLASS OF WORKER!!Civilian employed population 16 years and over!!Unpaid family workers
DP03_0051E,Estimate!!INCOME AND BENEFITS (IN 2019 INFLATION-ADJUSTED DOLLARS)!!Total households
DP03_0051PE,Percent!!INCOME AND BENEFITS (IN 2019 INFLATION-ADJUSTED DOLLARS)!!Total households
DP03_0052E,"Estimate!!INCOME AND BENEFITS (IN 2019 INFLATION-ADJUSTED DOLLARS)!!Total households!!Less than $10,000"
DP03_0052PE,"Percent!!INCOME AND BENEFITS (IN 2019 INFLATION-ADJUSTED DOLLARS)!!Total households!!Less than $10,000"
DP03_0053E,"Estimate!!INCOME AND BENEFITS (IN 2019 INFLATION-ADJUSTED DOLLARS)!!Total households!!$10,000 to $14,999"
DP03_0053PE,"Percent!!INCOME AND BENEFITS (IN 2019 INFLATION-ADJUSTED DOLLARS)!!Total households!!$10,000 to $14,999"
DP03_0054E,"Estimate!!INCOME AND BENEFITS (IN 2019 INFLATION-ADJUSTED DOLLARS)!!Total households!!$15,000 to $24,999"
DP03_0054PE,"Percent!!INCOME AND BENEFITS (IN 2019 INFLATION-ADJUSTED DOLLARS)!!Total households!!$15,000 to $24,999"
DP03_0055E,"Estimate!!INCOME AND BENEFITS (IN 2019 INFLATION-ADJUSTED DOLLARS)!!Total households!!$25,000 to $34,999"
DP03_0056E,"Estimate!!INCOME AND BENEFITS (IN 2019 INFLATION-ADJUSTED DOLLARS)!!Total households!!$35,000 to $49,999"
DP03_0056PE,"Percent!!INCOME AND BENEFITS (IN 2019 INFLATION-ADJUSTED DOLLARS)!!Total households!!$35,000 to $49,999"
DP03_0057E,"Estimate!!INCOME AND BENEFITS (IN 2019 INFLATION-ADJUSTED DOLLARS)!!Total households!!$50,000 to $74,999"
DP03_0057PE,"Percent!!INCOME AND BENEFITS (IN 2019 INFLATION-ADJUSTED DOLLARS)!!Total households!!$50,000 to $74,999"
DP03_0058E,"Estimate!!INCOME AND BENEFITS (IN 2019 INFLATION-ADJUSTED DOLLARS)!!Total households!!$75,000 to $99,999"
DP03_0058PE,"Percent!!INCOME AND BENEFITS (IN 2019 INFLATION-ADJUSTED DOLLARS)!!Total households!!$75,000 to $99,999"
DP03_0059E,"Estimate!!INCOME AND BENEFITS (IN 2019 INFLATION-ADJUSTED DOLLARS)!!Total households!!$100,000 to $149,999"
DP03_0059PE,"Percent!!INCOME AND BENEFITS (IN 2019 INFLATION-ADJUSTED DOLLARS)!!Total households!!$100,000 to $149,999"
DP03_0060E,"Estimate!!INCOME AND BENEFITS (IN 2019 INFLATION-ADJUSTED DOLLARS)!!Total households!!$150,000 to $199,999"
DP03_0060PE,"Percent!!INCOME AND BENEFITS (IN 2019 INFLATION-ADJUSTED DOLLARS)!!Total households!!$150,000 to $199,999"
DP03_0061E,"Estimate!!INCOME AND BENEFITS (IN 2019 INFLATION-ADJUSTED DOLLARS)!!Total households!!$200,000 or more"
DP03_0061PE,"Percent!!INCOME AND BENEFITS (IN 2019 INFLATION-ADJUSTED DOLLARS)!!Total households!!$200,000 or more"
DP03_0064PE,Percent!!INCOME AND BENEFITS (IN 2019 INFLATION-ADJUSTED DOLLARS)!!Total households!!With earnings
DP03_0066E,Estimate!!INCOME AND BENEFITS (IN 2019 INFLATION-ADJUSTED DOLLARS)!!Total households!!With Social Security
DP03_0066PE,Percent!!INCOME AND BENEFITS (IN 2019 INFLATION-ADJUSTED DOLLARS)!!Total households!!With Social Security
DP03_0067E,Estimate!!INCOME AND BENEFITS (IN 2019 INFLATION-ADJUSTED DOLLARS)!!Total households!!With Social Security!!Mean Social Security income (dollars)
DP03_0068E,Estimate!!INCOME AND BENEFITS (IN 2019 INFLATION-ADJUSTED DOLLARS)!!Total households!!With retirement income
DP03_0068PE,Percent!!INCOME AND BENEFITS (IN 2019 INFLATION-ADJUSTED DOLLARS)!!Total households!!With retirement income
DP03_0069E,Estimate!!INCOME AND BENEFITS (IN 2019 INFLATION-ADJUSTED DOLLARS)!!Total households!!With retirement income!!Mean retirement income (dollars)
DP03_0070E,Estimate!!INCOME AND BENEFITS (IN 2019 INFLATION-ADJUSTED DOLLARS)!!Total households!!With Supplemental Security Income
DP03_0070PE,Percent!!INCOME AND BENEFITS (IN 2019 INFLATION-ADJUSTED DOLLARS)!!Total households!!With Supplemental Security Income
DP03_0071E,Estimate!!INCOME AND BENEFITS (IN 2019 INFLATION-ADJUSTED DOLLARS)!!Total households!!With Supplemental Security Income!!Mean Supplemental Security Income (dollars)
DP03_0072E,Estimate!!INCOME AND BENEFITS (IN 2019 INFLATION-ADJUSTED DOLLARS)!!Total households!!With cash public assistance income
DP03_0072PE,Percent!!INCOME AND BENEFITS (IN 2019 INFLATION-ADJUSTED DOLLARS)!!Total households!!With cash public assistance income
DP03_0073E,Estimate!!INCOME AND BENEFITS (IN 2019 INFLATION-ADJUSTED DOLLARS)!!Total households!!With cash public assistance income!!Mean cash public assistance income (dollars)
DP03_0074E,Estimate!!INCOME AND BENEFITS (IN 2019 INFLATION-ADJUSTED DOLLARS)!!Total households!!With Food Stamp/SNAP benefits in the past 12 months
DP03_0074PE,Percent!!INCOME AND BENEFITS (IN 2019 INFLATION-ADJUSTED DOLLARS)!!Total households!!With Food Stamp/SNAP benefits in the past 12 months
DP03_0076E,"Estimate!!INCOME AND BENEFITS (IN 2019 INFLATION-ADJUSTED DOLLARS)!!Families!!Less than $10,000"
DP03_0076PE,"Percent!!INCOME AND BENEFITS (IN 2019 INFLATION-ADJUSTED DOLLARS)!!Families!!Less than $10,000"
DP03_0077E,"Estimate!!INCOME AND BENEFITS (IN 2019 INFLATION-ADJUSTED DOLLARS)!!Families!!$10,000 to $14,999"
DP03_0077PE,"Percent!!INCOME AND BENEFITS (IN 2019 INFLATION-ADJUSTED DOLLARS)!!Families!!$10,000 to $14,999"
DP03_0078E,"Estimate!!INCOME AND BENEFITS (IN 2019 INFLATION-ADJUSTED DOLLARS)!!Families!!$15,000 to $24,999"
DP03_0078PE,"Percent!!INCOME AND BENEFITS (IN 2019 INFLATION-ADJUSTED DOLLARS)!!Families!!$15,000 to $24,999"
DP03_0079E,"Estimate!!INCOME AND BENEFITS (IN 2019 INFLATION-ADJUSTED DOLLARS)!!Families!!$25,000 to $34,999"
DP03_0079PE,"Percent!!INCOME AND BENEFITS (IN 2019 INFLATION-ADJUSTED DOLLARS)!!Families!!$25,000 to $34,999"
DP03_0080PE,"Percent!!INCOME AND BENEFITS (IN 2019 INFLATION-ADJUSTED DOLLARS)!!Families!!$35,000 to $49,999"
DP03_0081E,"Estimate!!INCOME AND BENEFITS (IN 2019 INFLATION-ADJUSTED DOLLARS)!!Families!!$50,000 to $74,999"
DP03_0081PE,"Percent!!INCOME AND BENEFITS (IN 2019 INFLATION-ADJUSTED DOLLARS)!!Families!!$50,000 to $74,999"
DP03_0082PE,"Percent!!INCOME AND BENEFITS (IN 2019 INFLATION-ADJUSTED DOLLARS)!!Families!!$75,000 to $99,999"
DP03_0083PE,"Percent!!INCOME AND BENEFITS (IN 2019 INFLATION-ADJUSTED DOLLARS)!!Families!!$100,000 to $149,999"
DP03_0084E,"Estimate!!INCOME AND BENEFITS (IN 2019 INFLATION-ADJUSTED DOLLARS)!!Families!!$150,000 to $199,999"
DP03_0084PE,"Percent!!INCOME AND BENEFITS (IN 2019 INFLATION-ADJUSTED DOLLARS)!!Families!!$150,000 to $199,999"
DP03_0085E,"Estimate!!INCOME AND BENEFITS (IN 2019 INFLATION-ADJUSTED DOLLARS)!!Families!!$200,000 or more"
DP03_0085PE,"Percent!!INCOME AND BENEFITS (IN 2019 INFLATION-ADJUSTED DOLLARS)!!Families!!$200,000 or more"
DP03_0088E,Estimate!!INCOME AND BENEFITS (IN 2019 INFLATION-ADJUSTED DOLLARS)!!Per capita income (dollars)
DP03_0090E,Estimate!!INCOME AND BENEFITS (IN 2019 INFLATION-ADJUSTED DOLLARS)!!Nonfamily households!!Median nonfamily income (dollars)
DP03_0091E,Estimate!!INCOME AND BENEFITS (IN 2019 INFLATION-ADJUSTED DOLLARS)!!Nonfamily households!!Mean nonfamily income (dollars)
DP03_0092E,Estimate!!INCOME AND BENEFITS (IN 2019 INFLATION-ADJUSTED DOLLARS)!!Median earnings for workers (dollars)
DP03_0093E,"Estimate!!INCOME AND BENEFITS (IN 2019 INFLATION-ADJUSTED DOLLARS)!!Median earnings for male full-time, year-round workers (dollars)"
DP03_0094E,"Estimate!!INCOME AND BENEFITS (IN 2019 INFLATION-ADJUSTED DOLLARS)!!Median earnings for female full-time, year-round workers (dollars)"
DP03_0095E,Estimate!!HEALTH INSURANCE COVERAGE!!Civilian noninstitutionalized population
DP03_0095PE,Percent!!HEALTH INSURANCE COVERAGE!!Civilian noninstitutionalized population
DP03_0096E,Estimate!!HEALTH INSURANCE COVERAGE!!Civilian noninstitutionalized population!!With health insurance coverage
DP03_0096PE,Percent!!HEALTH INSURANCE COVERAGE!!Civilian noninstitutionalized population!!With health insurance coverage
DP03_0097E,Estimate!!HEALTH INSURANCE COVERAGE!!Civilian noninstitutionalized population!!With health insurance coverage!!With private health insurance
DP03_0097PE,Percent!!HEALTH INSURANCE COVERAGE!!Civilian noninstitutionalized population!!With health insurance coverage!!With private health insurance
DP03_0098E,Estimate!!HEALTH INSURANCE COVERAGE!!Civilian noninstitutionalized population!!With health insurance coverage!!With public coverage
DP03_0098PE,Percent!!HEALTH INSURANCE COVERAGE!!Civilian noninstitutionalized population!!With health insurance coverage!!With public coverage
DP03_0099E,Estimate!!HEALTH INSURANCE COVERAGE!!Civilian noninstitutionalized population!!No health insurance coverage
DP03_0101E,Estimate!!HEALTH INSURANCE COVERAGE!!Civilian noninstitutionalized population under 19 years!!No health insurance coverage
DP03_0101PE,Percent!!HEALTH INSURANCE COVERAGE!!Civilian noninstitutionalized population under 19 years!!No health insurance coverage
DP03_0102E,Estimate!!HEALTH INSURANCE COVERAGE!!Civilian noninstitutionalized population 19 to 64 years
DP03_0102PE,Percent!!HEALTH INSURANCE COVERAGE!!Civilian noninstitutionalized population 19 to 64 years
DP03_0103E,Estimate!!HEALTH INSURANCE COVERAGE!!Civilian noninstitutionalized population 19 to 64 years!!In labor force:
DP03_0103PE,Percent!!HEALTH INSURANCE COVERAGE!!Civilian noninstitutionalized population 19 to 64 years!!In labor force:
DP03_0104E,Estimate!!HEALTH INSURANCE COVERAGE!!Civilian noninstitutionalized population 19 to 64 years!!In labor force:!!Employed:
DP03_0104PE,Percent!!HEALTH INSURANCE COVERAGE!!Civilian noninstitutionalized population 19 to 64 years!!In labor force:!!Employed:
DP03_0105E,Estimate!!HEALTH INSURANCE COVERAGE!!Civilian noninstitutionalized population 19 to 64 years!!In labor force:!!Employed:!!With health insurance coverage
DP03_0105PE,Percent!!HEALTH INSURANCE COVERAGE!!Civilian noninstitutionalized population 19 to 64 years!!In labor force:!!Employed:!!With health insurance coverage
DP03_0106E,Estimate!!HEALTH INSURANCE COVERAGE!!Civilian noninstitutionalized population 19 to 64 years!!In labor force:!!Employed:!!With health insurance coverage!!With private health insurance
DP03_0106PE,Percent!!HEALTH INSURANCE COVERAGE!!Civilian noninstitutionalized population 19 to 64 years!!In labor force:!!Employed:!!With health insurance coverage!!With private health insurance
DP03_0107E,Estimate!!HEALTH INSURANCE COVERAGE!!Civilian noninstitutionalized population 19 to 64 years!!In labor force:!!Employed:!!With health insurance coverage!!With public coverage
DP03_0107PE,Percent!!HEALTH INSURANCE COVERAGE!!Civilian noninstitutionalized population 19 to 64 years!!In labor force:!!Employed:!!With health insurance coverage!!With public coverage
DP03_0108E,Estimate!!HEALTH INSURANCE COVERAGE!!Civilian noninstitutionalized population 19 to 64 years!!In labor force:!!Employed:!!No health insurance coverage
DP03_0108PE,Percent!!HEALTH INSURANCE COVERAGE!!Civilian noninstitutionalized population 19 to 64 years!!In labor force:!!Employed:!!No health insurance coverage
DP03_0109E,Estimate!!HEALTH INSURANCE COVERAGE!!Civilian noninstitutionalized population 19 to 64 years!!In labor force:!!Unemployed:
DP03_0109PE,Percent!!HEALTH INSURANCE COVERAGE!!Civilian noninstitutionalized population 19 to 64 years!!In labor force:!!Unemployed:
DP03_0110E,Estimate!!HEALTH INSURANCE COVERAGE!!Civilian noninstitutionalized population 19 to 64 years!!In labor force:!!Unemployed:!!With health insurance coverage
DP03_0110PE,Percent!!HEALTH INSURANCE COVERAGE!!Civilian noninstitutionalized population 19 to 64 years!!In labor force:!!Unemployed:!!With health insurance coverage
DP03_0111E,Estimate!!HEALTH INSURANCE COVERAGE!!Civilian noninstitutionalized population 19 to 64 years!!In labor force:!!Unemployed:!!With health insurance coverage!!With private health insurance
DP03_0111PE,Percent!!HEALTH INSURANCE COVERAGE!!Civilian noninstitutionalized population 19 to 64 years!!In labor force:!!Unemployed:!!With health insurance coverage!!With private health insurance
DP03_0112E,Estimate!!HEALTH INSURANCE COVERAGE!!Civilian noninstitutionalized population 19 to 64 years!!In labor force:!!Unemployed:!!With health insurance coverage!!With public coverage
DP03_0112PE,Percent!!HEALTH INSURANCE COVERAGE!!Civilian noninstitutionalized population 19 to 64 years!!In labor force:!!Unemployed:!!With health insurance coverage!!With public coverage
DP03_0113E,Estimate!!HEALTH INSURANCE COVERAGE!!Civilian noninstitutionalized population 19 to 64 years!!In labor force:!!Unemployed:!!No health insurance coverage
DP03_0113PE,Percent!!HEALTH INSURANCE COVERAGE!!Civilian noninstitutionalized population 19 to 64 years!!In labor force:!!Unemployed:!!No health insurance coverage
DP03_0114E,Estimate!!HEALTH INSURANCE COVERAGE!!Civilian noninstitutionalized population 19 to 64 years!!Not in labor force:
DP03_0114PE,Percent!!HEALTH INSURANCE COVERAGE!!Civilian noninstitutionalized population 19 to 64 years!!Not in labor force:
DP03_0115E,Estimate!!HEALTH INSURANCE COVERAGE!!Civilian noninstitutionalized population 19 to 64 years!!Not in labor force:!!With health insurance coverage
DP03_0115PE,Percent!!HEALTH INSURANCE COVERAGE!!Civilian noninstitutionalized population 19 to 64 years!!Not in labor force:!!With health insurance coverage
DP03_0116E,Estimate!!HEALTH INSURANCE COVERAGE!!Civilian noninstitutionalized population 19 to 64 years!!Not in labor force:!!With health insurance coverage!!With private health insurance
DP03_0117E,Estimate!!HEALTH INSURANCE COVERAGE!!Civilian noninstitutionalized population 19 to 64 years!!Not in labor force:!!With health insurance coverage!!With public coverage
DP03_0118E,Estimate!!HEALTH INSURANCE COVERAGE!!Civilian noninstitutionalized population 19 to 64 years!!Not in labor force:!!No health insurance coverage
DP03_0118PE,Percent!!HEALTH INSURANCE COVERAGE!!Civilian noninstitutionalized population 19 to 64 years!!Not in labor force:!!No health insurance coverage
DP03_0119PE,Percent!!PERCENTAGE OF FAMILIES AND PEOPLE WHOSE INCOME IN THE PAST 12 MONTHS IS BELOW THE POVERTY LEVEL!!All families
DP03_0120PE,Percent!!PERCENTAGE OF FAMILIES AND PEOPLE WHOSE INCOME IN THE PAST 12 MONTHS IS BELOW THE POVERTY LEVEL!!All families!!With related children of the householder under 18 years
DP03_0121PE,Percent!!PERCENTAGE OF FAMILIES AND PEOPLE WHOSE INCOME IN THE PAST 12 MONTHS IS BELOW THE POVERTY LEVEL!!All families!!With related children of the householder under 18 years!!With related children of the householder under 5 years only
DP03_0122PE,Percent!!PERCENTAGE OF FAMILIES AND PEOPLE WHOSE INCOME IN THE PAST 12 MONTHS IS BELOW THE POVERTY LEVEL!!All families!!Married couple families
DP03_0123PE,Percent!!PERCENTAGE OF FAMILIES AND PEOPLE WHOSE INCOME IN THE PAST 12 MONTHS IS BELOW THE POVERTY LEVEL!!All families!!Married couple families!!With related children of the householder under 18 years
DP03_0124PE,Percent!!PERCENTAGE OF FAMILIES AND PEOPLE WHOSE INCOME IN THE PAST 12 MONTHS IS BELOW THE POVERTY LEVEL!!All families!!Married couple families!!With related children of the householder under 18 years!!With related children of the householder under 5 years only
DP03_0125PE,"Percent!!PERCENTAGE OF FAMILIES AND PEOPLE WHOSE INCOME IN THE PAST 12 MONTHS IS BELOW THE POVERTY LEVEL!!All families!!Families with female householder, no spouse present"
DP03_0126PE,"Percent!!PERCENTAGE OF FAMILIES AND PEOPLE WHOSE INCOME IN THE PAST 12 MONTHS IS BELOW THE POVERTY LEVEL!!All families!!Families with female householder, no spouse present!!With related children of the householder under 18 years"
DP03_0127PE,"Percent!!PERCENTAGE OF FAMILIES AND PEOPLE WHOSE INCOME IN THE PAST 12 MONTHS IS BELOW THE POVERTY LEVEL!!All families!!Families with female householder, no spouse present!!With related children of the householder under 18 years!!With related children of the householder under 5 years only"
DP03_0128PE,Percent!!PERCENTAGE OF FAMILIES AND PEOPLE WHOSE INCOME IN THE PAST 12 MONTHS IS BELOW THE POVERTY LEVEL!!All people
DP03_0129PE,Percent!!PERCENTAGE OF FAMILIES AND PEOPLE WHOSE INCOME IN THE PAST 12 MONTHS IS BELOW THE POVERTY LEVEL!!All people!!Under 18 years
DP03_0130PE,Percent!!PERCENTAGE OF FAMILIES AND PEOPLE WHOSE INCOME IN THE PAST 12 MONTHS IS BELOW THE POVERTY LEVEL!!All people!!Under 18 years!!Related children of the householder under 18 years
DP03_0131PE,Percent!!PERCENTAGE OF FAMILIES AND PEOPLE WHOSE INCOME IN THE PAST 12 MONTHS IS BELOW THE POVERTY LEVEL!!All people!!Under 18 years!!Related children of the householder under 18 years!!Related children of the householder under 5 years
DP03_0132PE,Percent!!PERCENTAGE OF FAMILIES AND PEOPLE WHOSE INCOME IN THE PAST 12 MONTHS IS BELOW THE POVERTY LEVEL!!All people!!Under 18 years!!Related children of the householder under 18 years!!Related children of the householder 5 to 17 years
DP03_0133PE,Percent!!PERCENTAGE OF FAMILIES AND PEOPLE WHOSE INCOME IN THE PAST 12 MONTHS IS BELOW THE POVERTY LEVEL!!All people!!18 years and over
DP03_0134PE,Percent!!PERCENTAGE OF FAMILIES AND PEOPLE WHOSE INCOME IN THE PAST 12 MONTHS IS BELOW THE POVERTY LEVEL!!All people!!18 years and over!!18 to 64 years
DP03_0135PE,Percent!!PERCENTAGE OF FAMILIES AND PEOPLE WHOSE INCOME IN THE PAST 12 MONTHS IS BELOW THE POVERTY LEVEL!!All people!!18 years and over!!65 years and over
DP03_0136PE,Percent!!PERCENTAGE OF FAMILIES AND PEOPLE WHOSE INCOME IN THE PAST 12 MONTHS IS BELOW THE POVERTY LEVEL!!All people!!People in families
DP03_0137PE,Percent!!PERCENTAGE OF FAMILIES AND PEOPLE WHOSE INCOME IN THE PAST 12 MONTHS IS BELOW THE POVERTY LEVEL!!All people!!Unrelated individuals 15 years and over
